<?xml version="1.0" encoding="UTF-8" standalone="no"?>
<!-- Generated by IcoMoon.io -->

<svg
   xmlns:dc="http://purl.org/dc/elements/1.1/"
   xmlns:cc="http://creativecommons.org/ns#"
   xmlns:rdf="http://www.w3.org/1999/02/22-rdf-syntax-ns#"
   xmlns:svg="http://www.w3.org/2000/svg"
   xmlns="http://www.w3.org/2000/svg"
   xmlns:sodipodi="http://sodipodi.sourceforge.net/DTD/sodipodi-0.dtd"
   xmlns:inkscape="http://www.inkscape.org/namespaces/inkscape"
   version="1.1"
   width="16"
   height="32"
   viewBox="0 0 16 32"
   id="svg2"
   inkscape:version="0.91 r13725"
   sodipodi:docname="icon-icon-28.svg">
  <metadata
     id="metadata10">
    <rdf:RDF>
      <cc:Work
         rdf:about="">
        <dc:format>image/svg+xml</dc:format>
        <dc:type
           rdf:resource="http://purl.org/dc/dcmitype/StillImage" />
      </cc:Work>
    </rdf:RDF>
  </metadata>
  <defs
     id="defs8" />
  <sodipodi:namedview
     pagecolor="#ffffff"
     bordercolor="#666666"
     borderopacity="1"
     objecttolerance="10"
     gridtolerance="10"
     guidetolerance="10"
     inkscape:pageopacity="0"
     inkscape:pageshadow="2"
     inkscape:window-width="710"
     inkscape:window-height="480"
     id="namedview6"
     showgrid="false"
     inkscape:zoom="7.375"
     inkscape:cx="8.5423729"
     inkscape:cy="16"
     inkscape:window-x="10"
     inkscape:window-y="345"
     inkscape:window-maximized="0"
     inkscape:current-layer="svg2" />
  <path
     fill="#2bace2"
     d="M1.149 32c-0.328 0-0.656-0.164-0.821-0.328-0.492-0.492-0.492-1.149-0.164-1.805l12.472-13.949-12.472-13.949c-0.492-0.492-0.328-1.313 0.164-1.805 0.492-0.328 1.313-0.328 1.805 0.164l13.128 14.769c0.492 0.492 0.492 1.149 0 1.641l-13.128 14.769c-0.328 0.328-0.656 0.492-0.985 0.492z"
     id="path4"
     style="fill:#000000" />
</svg>
