<?xml version="1.0" encoding="UTF-8"?>
<svg width="30px" height="24px" viewBox="0 0 30 24" version="1.1" xmlns="http://www.w3.org/2000/svg" xmlns:xlink="http://www.w3.org/1999/xlink">
    <!-- Generator: Sketch 41.2 (35397) - http://www.bohemiancoding.com/sketch -->
    <title>ic_mail_black_24px</title>
    <desc>Created with Sketch.</desc>
    <defs></defs>
    <g id="Page-1" stroke="none" stroke-width="1" fill="none" fill-rule="evenodd">
        <g id="NOTFICACOES-LIDER" transform="translate(-831.000000, -300.000000)">
            <g id="ic_mail_black_24px" transform="translate(828.000000, 294.000000)">
                <g id="Group">
                    <path d="M30,6 L6,6 C4.35,6 3.015,7.35 3.015,9 L3,27 C3,28.65 4.35,30 6,30 L30,30 C31.65,30 33,28.65 33,27 L33,9 C33,7.35 31.65,6 30,6 Z M30,12 L18,19.5 L6,12 L6,9 L18,16.5 L30,9 L30,12 Z" id="Shape" fill="#FFFFFF"></path>
                    <polygon id="Shape" points="0 0 36 0 36 36 0 36"></polygon>
                </g>
            </g>
        </g>
    </g>
</svg>