<?xml version="1.0" encoding="UTF-8" standalone="no"?>
<svg
   xmlns:dc="http://purl.org/dc/elements/1.1/"
   xmlns:cc="http://creativecommons.org/ns#"
   xmlns:rdf="http://www.w3.org/1999/02/22-rdf-syntax-ns#"
   xmlns:svg="http://www.w3.org/2000/svg"
   xmlns="http://www.w3.org/2000/svg"
   id="svg2"
   version="1.1"
   viewBox="0 0 24 22"
   height="22px"
   width="24px">
  <metadata
     id="metadata20">
    <rdf:RDF>
      <cc:Work
         rdf:about="">
        <dc:format>image/svg+xml</dc:format>
        <dc:type
           rdf:resource="http://purl.org/dc/dcmitype/StillImage" />
        <dc:title>Group</dc:title>
      </cc:Work>
    </rdf:RDF>
  </metadata>
  <!-- Generator: Sketch 41.2 (35397) - http://www.bohemiancoding.com/sketch -->
  <title
     id="title4">Group</title>
  <desc
     id="desc6">Created with Sketch.</desc>
  <defs
     id="defs8" />
  <path
     d="m 12,5.1666661 0,-4.66666605 -11.66666688,0 0,20.99999995 23.33333388,0 0,-16.333334 -11.666667,0 z m -6.9999999,14.0000009 -2.333334,0 0,-2.333334 2.333334,0 0,2.333334 z m 0,-4.666667 -2.333334,0 0,-2.333333 2.333334,0 0,2.333333 z m 0,-4.666667 -2.333334,0 0,-2.3333329 2.333334,0 0,2.3333329 z m 0,-4.6666669 -2.333334,0 0,-2.333333 2.333334,0 0,2.333333 z m 4.666667,14.0000009 -2.333334,0 0,-2.333334 2.333334,0 0,2.333334 z m 0,-4.666667 -2.333334,0 0,-2.333333 2.333334,0 0,2.333333 z m 0,-4.666667 -2.333334,0 0,-2.3333329 2.333334,0 0,2.3333329 z m 0,-4.6666669 -2.333334,0 0,-2.333333 2.333334,0 0,2.333333 z m 11.6666659,14.0000009 -9.333333,0 0,-2.333334 2.333333,0 0,-2.333333 -2.333333,0 0,-2.333333 2.333333,0 0,-2.333334 -2.333333,0 0,-2.3333329 9.333333,0 0,11.6666669 z M 19,9.833333 l -2.333333,0 0,2.333334 2.333333,0 0,-2.3333341 z M 19,14.5 l -2.333333,0 0,2.333333 2.333333,0 L 19,14.5 Z"
     id="path16"
     style="fill:#000000;fill-rule:evenodd;stroke:none;stroke-width:1" />
</svg>
