<?xml version="1.0" encoding="UTF-8"?>
<svg width="196px" height="196px" viewBox="0 0 196 196" version="1.1" xmlns="http://www.w3.org/2000/svg" xmlns:xlink="http://www.w3.org/1999/xlink">
    <!-- Generator: Sketch 41.2 (35397) - http://www.bohemiancoding.com/sketch -->
    <title>play-button (1)</title>
    <desc>Created with Sketch.</desc>
    <defs>
        <path d="M158.580117,42.5182617 C147.232949,22.864668 128.911465,8.80546875 106.990098,2.93183594 C85.0690625,-2.94246094 62.1728516,0.0720507813 42.5182617,11.4198828 C22.8640039,22.7673828 8.80546875,41.0888672 2.93183594,63.0102344 C-2.94179687,84.9312695 0.0727148438,107.828145 11.4198828,127.481738 C22.7667188,147.135332 41.0888672,161.194531 63.0099023,167.068164 C70.3298633,169.029805 77.7577344,170 85.138457,170 C99.8603906,170 114.390742,166.138809 127.48207,158.580449 C147.135664,147.233281 161.194863,128.911797 167.068496,106.99043 C172.942461,85.0687305 169.927285,62.1725195 158.580117,42.5182617 Z M158.521348,104.70041 C153.259316,124.33873 140.664707,140.752695 123.05709,150.918164 C105.450137,161.083965 84.9379102,163.784043 65.2995898,158.522676 C45.6609375,153.260645 29.2473047,140.666035 19.0815039,123.058418 C8.91603516,105.451465 6.215625,84.9389063 11.4779883,65.3002539 C16.7403516,45.6619336 29.3349609,29.2486328 46.9422461,19.0825 C58.67125,12.3107227 71.686543,8.85195313 84.8764844,8.85195313 C91.4872266,8.85195313 98.1441211,9.72121094 104.699414,11.4779883 C124.337734,16.7400195 140.751699,29.3346289 150.917168,46.9422461 C161.082969,64.5495313 163.783711,85.0617578 158.521348,104.70041 Z" id="path-1"></path>
        <filter x="-50%" y="-50%" width="200%" height="200%" filterUnits="objectBoundingBox" id="filter-2">
            <feOffset dx="0" dy="0" in="SourceAlpha" result="shadowOffsetOuter1"></feOffset>
            <feGaussianBlur stdDeviation="6.5" in="shadowOffsetOuter1" result="shadowBlurOuter1"></feGaussianBlur>
            <feColorMatrix values="0 0 0 0 0   0 0 0 0 0   0 0 0 0 0  0 0 0 0.5 0" type="matrix" in="shadowBlurOuter1"></feColorMatrix>
        </filter>
        <path d="M125.766133,76.9821094 L71.1383594,45.4424609 C68.2393945,43.7686914 64.7783008,43.7693555 61.8793359,45.4421289 C58.9803711,47.1155664 57.2494922,50.1134766 57.2494922,53.4606836 L57.2494922,116.53998 C57.2494922,119.887188 58.9800391,122.884766 61.8793359,124.558535 C63.3286523,125.395586 64.9180859,125.813613 66.5081836,125.813613 C68.0986133,125.813613 69.6887109,125.39459 71.1380273,124.558203 L125.766465,93.0188867 C128.665098,91.3447852 130.395313,88.347207 130.395313,85 C130.395313,81.653125 128.664766,78.6555469 125.766133,76.9821094 Z M121.341484,85.3566016 L66.7133789,116.895918 C66.6466406,116.934766 66.5075195,117.014785 66.3029883,116.895918 C66.097793,116.777383 66.097793,116.617344 66.097793,116.540312 L66.097793,53.4610156 C66.097793,53.3839844 66.097793,53.2239453 66.3029883,53.1054102 C66.3833398,53.0589258 66.4533984,53.0429883 66.5131641,53.0429883 C66.6061328,53.0429883 66.6732031,53.0818359 66.714043,53.1054102 L121.341816,84.6450586 C121.408555,84.6835742 121.547012,84.7635937 121.547012,85.0006641 C121.547012,85.2377344 121.407891,85.3180859 121.341484,85.3566016 Z" id="path-3"></path>
        <filter x="-50%" y="-50%" width="200%" height="200%" filterUnits="objectBoundingBox" id="filter-4">
            <feOffset dx="0" dy="0" in="SourceAlpha" result="shadowOffsetOuter1"></feOffset>
            <feGaussianBlur stdDeviation="6.5" in="shadowOffsetOuter1" result="shadowBlurOuter1"></feGaussianBlur>
            <feColorMatrix values="0 0 0 0 0   0 0 0 0 0   0 0 0 0 0  0 0 0 0.5 0" type="matrix" in="shadowBlurOuter1"></feColorMatrix>
        </filter>
        <path d="M137.229512,44.6382812 C126.707773,31.0455859 110.890801,21.9133984 93.8336914,19.5828711 C91.4155078,19.2518359 89.1822656,20.9461914 88.8512305,23.3676953 C88.5208594,25.7885352 90.2152148,28.0191211 92.6360547,28.3501562 C107.41543,30.3692383 121.118691,38.2808789 130.232617,50.054707 C131.104531,51.180957 132.412402,51.7706445 133.734219,51.7706445 C134.680176,51.7706445 135.633438,51.4688281 136.438945,50.8446094 C138.371035,49.3491406 138.72498,46.5703711 137.229512,44.6382812 Z" id="path-5"></path>
        <filter x="-50%" y="-50%" width="200%" height="200%" filterUnits="objectBoundingBox" id="filter-6">
            <feOffset dx="0" dy="0" in="SourceAlpha" result="shadowOffsetOuter1"></feOffset>
            <feGaussianBlur stdDeviation="6.5" in="shadowOffsetOuter1" result="shadowBlurOuter1"></feGaussianBlur>
            <feColorMatrix values="0 0 0 0 0   0 0 0 0 0   0 0 0 0 0  0 0 0 0.5 0" type="matrix" in="shadowBlurOuter1"></feColorMatrix>
        </filter>
    </defs>
    <g id="Page-1" stroke="none" stroke-width="1" fill="none" fill-rule="evenodd">
        <g id="LANDING-PAGE-SHAREPOINT" transform="translate(-542.000000, -1982.000000)">
            <g id="play-button-(1)" transform="translate(555.000000, 1995.000000)">
                <g id="Layer_1">
                    <g id="Shape">
                        <use fill="black" fill-opacity="1" filter="url(#filter-2)" xlink:href="#path-1"></use>
                        <use fill="#FFFFFF" fill-rule="evenodd" xlink:href="#path-1"></use>
                    </g>
                    <g id="Shape">
                        <use fill="black" fill-opacity="1" filter="url(#filter-4)" xlink:href="#path-3"></use>
                        <use fill="#FFFFFF" fill-rule="evenodd" xlink:href="#path-3"></use>
                    </g>
                    <g id="Shape">
                        <use fill="black" fill-opacity="1" filter="url(#filter-6)" xlink:href="#path-5"></use>
                        <use fill="#FFFFFF" fill-rule="evenodd" xlink:href="#path-5"></use>
                    </g>
                </g>
            </g>
        </g>
    </g>
</svg>
